<?xml version="1.0" encoding="utf-8"?>
<!-- Generator: Adobe Illustrator 22.1.0, SVG Export Plug-In . SVG Version: 6.00 Build 0)  -->
<svg version="1.1" id="Capa_1" xmlns="http://www.w3.org/2000/svg" xmlns:xlink="http://www.w3.org/1999/xlink" x="0px" y="0px"
	 viewBox="0 0 24 24" style="enable-background:new 0 0 24 24;" xml:space="preserve">
<title>shop</title>
<path d="M23.1,4.8V1c0-0.6-0.4-1-1-1H1.9c-0.6,0-1,0.4-1,1v3.8C0.4,4.9,0,5.3,0,5.8v4c0,0.7,0.1,1.4,0.4,2.1
	c0.1,0.3,0.3,0.6,0.5,0.9V23c0,0.6,0.4,1,1,1h20.3c0.6,0,1-0.4,1-1V12.7c0.2-0.3,0.3-0.6,0.5-0.9c0.3-0.7,0.4-1.4,0.4-2.1V5.8
	C24,5.3,23.6,4.8,23.1,4.8z M3.1,2.2H21v2.6H3.1L3.1,2.2z M14,21.8h-3.8v-3.1H14V21.8z M21,21.8h-5.1v-4.1c0-0.6-0.4-1-1-1H9.2
	c-0.6,0-1,0.4-1,1v4.1H3.1v-7.3l0.3,0.1C4,15,4.7,15.1,5.4,15.1c0.7,0,1.5-0.1,2.2-0.4C8,14.5,8.4,14.3,8.8,14l0,0
	c0.4,0.3,0.7,0.5,1.2,0.7c1.4,0.6,2.9,0.6,4.2,0c0.4-0.2,0.8-0.4,1.2-0.7l0,0c0.4,0.3,0.7,0.5,1.2,0.7c1.4,0.6,2.9,0.6,4.2,0
	l0.3-0.1L21,21.8L21,21.8z M21.9,9.7c0,1.8-1.5,3.3-3.3,3.3c-1.2,0-2.2-0.6-2.8-1.7c-0.1-0.1-0.2-0.2-0.4-0.2l0,0
	c-0.2,0-0.3,0.1-0.4,0.2c-0.9,1.6-2.9,2.1-4.5,1.2c-0.5-0.3-0.9-0.7-1.2-1.2c-0.1-0.2-0.4-0.3-0.7-0.2c-0.1,0-0.2,0.1-0.2,0.2
	c-0.6,1-1.7,1.7-2.8,1.7c-1.8,0-3.3-1.4-3.3-3.2c0,0,0,0,0-0.1V7l0,0h19.7l0,0V9.7z"/>
</svg>
